<?xml version="1.0" encoding="iso-8859-1"?>
<!-- Generator: Adobe Illustrator 19.0.0, SVG Export Plug-In . SVG Version: 6.00 Build 0)  -->
<svg version="1.1" id="Layer_1" xmlns="http://www.w3.org/2000/svg" xmlns:xlink="http://www.w3.org/1999/xlink" x="0px" y="0px"
	 viewBox="0 0 511.999 511.999" style="enable-background:new 0 0 511.999 511.999;" xml:space="preserve">
<g>
	<g>
		<path fill="#e4e4e4" d="M490.663,146.773c-16.29-27.28-39.178-53.234-54.635-66.853c-33.989-29.957-62.414-29.175-76.331-26.044
			c-5.598,1.26-10.75,3.309-15.336,6.01c-24.012-17.538-53.163-26.131-88.362-26.131s-64.35,8.593-88.362,26.131
			c-4.587-2.701-9.739-4.75-15.336-6.01c-13.917-3.131-42.342-3.914-76.33,26.043c-15.458,13.62-38.347,39.574-54.636,66.855
			c-22.21,37.196-27.109,67.372-14.559,89.693c14.795,26.31,37.605,33.655,55.814,35.653c-4.354,17.2-7.024,35.654-7.024,58.526
			c0,31.139,7.136,57.946,21.21,79.673c12.373,19.103,30.171,34.393,52.902,45.445c35.464,17.244,76.983,21.564,109.631,22.481
			V374.141c-20.219-9.534-39.912-33.403-39.912-52.424c0-32.039,35.434-32.039,56.604-32.039c21.17,0,56.604,0,56.604,32.039
			c0,19.023-19.694,42.89-39.912,52.424v104.103c32.649-0.917,74.169-5.237,109.631-22.481
			c22.73-11.052,40.529-26.342,52.902-45.445c14.073-21.728,21.21-48.534,21.21-79.673c0-22.873-2.669-41.327-7.024-58.527
			c18.209-1.997,41.02-9.343,55.814-35.653C517.772,214.145,512.873,183.97,490.663,146.773z M204.071,241.175
			c-11.289,0-20.477-9.24-20.477-20.639c0-11.4,9.187-20.633,20.477-20.633c11.303,0,20.489,9.233,20.489,20.633
			C224.561,231.935,215.375,241.175,204.071,241.175z M307.773,241.33c-11.399,0-20.645-9.309-20.645-20.793
			c0-11.484,9.246-20.793,20.645-20.793c11.385,0,20.63,9.309,20.63,20.793C328.403,232.021,319.157,241.33,307.773,241.33z"/>
	</g>
</g>
</svg>
